# ? <-- This is here to make sure that the encoding stays ANSI, do not remove it
country_decisions = {

	damerian_nation = {
		major = yes
		potential = {
			OR = {
				primary_culture = east_damerian
				primary_culture = west_damerian
				primary_culture = rogieran
			}
			NOT = { has_country_flag = formed_dameria_flag }
			NOT = { has_country_flag = formed_pashaine_flag }
			NOT = { tag = Z01 } #Empire of Anbennar
			OR = {
				ai = no
				is_playing_custom_nation = no
			}
			OR = {
				ai = no
				NOT = { exists = A58 }
			}
			is_colonial_nation = no
			OR = {
				is_former_colonial_nation = no
				AND = {
					is_former_colonial_nation = yes
					ai = no
				}
			}
			government = monarchy
			normal_or_historical_nations = yes
			was_never_end_game_tag_trigger = yes
		}
		provinces_to_highlight = {
			OR = {	
				AND = {
					OR = {
						province_id = 168	# Auraire
						province_id = 6		# Damesear
						province_id = 5		# Varivar
						province_id = 2		# Eargate
						province_id = 8		# Anbenncost
						province_id = 11	# Damesteeth
					}
					OR = {
						ROOT = { dip = 5 }
						ROOT = { dynasty = "Silmuna"}
					}
				}
				AND = {
					AND = {
						NOT = { ROOT = { dip = 5 } }
						NOT = { ROOT = { dynasty = "Silmuna"} }
					}
					OR = {
						province_id = 168	# Auraire
						province_id = 6		# Damesear
						province_id = 5		# Varivar
						province_id = 2		# Eargate
						province_id = 8		# Anbenncost
						province_id = 11	# Damesteeth
						province_id = 276	# Damescross
						province_id = 330	# Acromton
						province_id = 910	# Taxwick
						province_id = 281	# Plumwall
						province_id = 13	# Toothsend
						province_id = 10	# Wesdam
					}
				}
			}
			OR = {
				NOT = { owned_by = ROOT }
				NOT = { is_core = ROOT }
			}
		}
		allow = {
			is_at_war = no
			is_free_or_tributary_trigger = yes
			is_nomad = no			
			NOT = { exists = A58 }
			OR = {
				#owns core Dameshead and is godly ruler or Silmuna
				AND = {
					owns_core_province = 168	# Auraire
					owns_core_province = 6		# Damesear
					owns_core_province = 5		# Varivar
					owns_core_province = 2		# Eargate
					owns_core_province = 8		# Anbenncost
					owns_core_province = 11	# Damesteeth
					
					OR = {
						dip = 5
						dynasty = "Silmuna"
					}
				}
				#owns de jure Damerian lands
				AND = {
					owns_core_province = 168	# Auraire
					owns_core_province = 6		# Damesear
					owns_core_province = 5		# Varivar
					owns_core_province = 2		# Eargate
					owns_core_province = 8		# Anbenncost
					
					owns_core_province = 276	# Damescross
					owns_core_province = 330	# Acromton
					owns_core_province = 910	# Taxwick
					owns_core_province = 281	# Plumwall
					
					owns_core_province = 13	# Toothsend
					owns_core_province = 10	# Wesdam
					
					owns_core_province = 11	# Damesteeth
				}
			}
		}
		effect = {
			8 = { #Anbenncost
				move_capital_effect = yes
			}
			change_tag = A58
			hidden_effect = { restore_country_name = yes }
			swap_non_generic_missions = yes
			#remove_non_electors_emperors_from_empire_effect = yes
			if = {
				limit = {
					NOT = { government_rank = 2 }
				}
				set_government_rank = 2
			}
			
			if = {
				limit = { NOT = { has_reform = damerian_monarchy } }
				add_government_reform = damerian_monarchy
			}
			
			west_damesear_area = {
				limit = {
					NOT = { owned_by = ROOT }
				}
				add_permanent_claim = A58
			}
			east_damesear_area = {
				limit = {
					NOT = { owned_by = ROOT }
				}
				add_permanent_claim = A58
			}
			west_dameshead_region = {
				limit = {
					NOT = { owned_by = ROOT }
				}
				add_permanent_claim = A58
			}
			damerian_dales_area = {
				limit = {
					NOT = { owned_by = ROOT }
				}
				add_permanent_claim = A58
			}
			the_commons_area = {
				limit = {
					NOT = { owned_by = ROOT }
				}
				add_permanent_claim = A58
			}
			heartlands_area = {
				limit = {
					NOT = { owned_by = ROOT }
				}
				add_permanent_claim = A58
			}
			add_historical_friend = A45	#Istralore
			add_historical_friend = A41	#Damish Temple
			add_historical_friend = A31	#Moonhaven
			add_historical_rival = A01	#Lorent
			add_historical_rival = A13	#Gawed
			
			add_country_modifier = {
				name = "centralization_modifier"
				duration = 7300
			}
			add_prestige = 50
			if = {
				limit = {
					has_custom_ideas = no
				}
				country_event = { id = ideagroups.1 } #Swap Ideas
			}
			set_country_flag = formed_dameria_flag
			set_country_flag = is_a_grand_duchy
		}
		ai_will_do = {
			factor = 1
		}
	}
	
}
