# ? <-- This is here to make sure that the encoding stays ANSI, do not remove it
country_decisions = {

	viswall_nation = {
		major = yes
		potential = {
			primary_culture = visfoot_halfling
			NOT = { has_country_flag = formed_viswall_flag }
			NOT = { exists = Z39 } #Viswall doesn't exist
			is_colonial_nation = no
			OR = {
				is_former_colonial_nation = no
				AND = {
					is_former_colonial_nation = yes
					ai = no
				}
			}
			normal_or_historical_nations = yes
			was_never_end_game_tag_trigger = yes
		}
		provinces_to_highlight = {
			OR = {
				province_id = 63
				province_id = 66
			}
			OR = {
				NOT = { owned_by = ROOT }
				NOT = { is_core = ROOT }
			}
		}
		allow = {
			is_nomad = no
			is_at_war = no
			owns_core_province = 63 # South Viswall
			owns_core_province = 66 # North Viswall
			OR = {
				AND = {
					tag = A07
					NOT = { exists = A08 }
				}
				AND = {
					tag = A08
					NOT = { exists = A07 }
				}
				AND = {
					NOT = { tag = A07 }
					NOT = { tag = A08 }
					NOT = { exists = A07 }
					NOT = { exists = A08 }
				}
			}
		}
		effect = {
			change_tag = Z39
			hidden_effect = { restore_country_name = yes }
			remove_non_electors_emperors_from_empire_effect = yes
			add_prestige = 25
			add_country_modifier = {
				name = "centralization_modifier"
				duration = 7300
			}
			# Remove all South and North Viswall cores
			if = {
				limit = {
					NOT = { tag = A07 }
				}
				every_province = {
					limit = {
						is_core = A07
					}
					remove_core = A07
				}
			}
			if  = {
				limit = {
					NOT = { tag = A08 }
				}
				every_province = {
					limit = {
						is_core = A08
					}
					remove_core = A08
				}
			}
			# Viswall Capital event for countries that are not North Viswall or South Viswall
			if = {
				limit = {
					NOT = { tag = A07 } # So it doesn't show up in the description UI
					NOT = { tag = A08 } # So it doesn't show up in the description UI
					NOT = { was_tag = A07 }
					NOT = { was_tag = A08 }
				}
				country_event = { id = flavor_viswall.1 }
			}
			
			if = {
				limit = {
					has_custom_ideas = no
				}
				country_event = { id = ideagroups.1 } #Swap Ideas
			}
			set_country_flag = formed_viswall_flag
		}
		ai_will_do = {
			factor = 1
		}
		ai_importance = 400
	}
}